<svg xmlns="http://www.w3.org/2000/svg" viewBox="0 -0.5 16 16" shape-rendering="crispEdges">
<metadata>Made with Pixels to Svg https://codepen.io/shshaw/pen/XbxvNj</metadata>
<path stroke="#414141" d="M1 1h14M1 2h2M4 2h2M13 2h2M1 3h2M4 3h2M7 3h2M10 3h2M13 3h2M1 4h2M4 4h2M7 4h2M10 4h2M13 4h2M1 5h2M5 5h1M8 5h1M11 5h1M13 5h2M1 6h2M5 6h1M13 6h2M1 7h2M5 7h1M7 7h2M10 7h5M1 8h2M4 8h1M7 8h2M10 8h5M1 9h2M4 9h1M7 9h2M10 9h5M1 10h2M4 10h1M7 10h2M10 10h5M1 11h2M4 11h2M7 11h2M10 11h5M1 12h2M4 12h2M7 12h2M10 12h5M1 13h2M4 13h2M7 13h2M10 13h5M1 14h14" />
<path stroke="#ff0000" d="M3 2h1M6 2h1M3 3h1M6 3h1M3 4h1M6 4h1M3 5h2M6 5h1M3 6h2M6 6h1M3 7h2M6 7h1M3 8h1M5 8h2M3 9h1M5 9h2M3 10h1M5 10h2M3 11h1M6 11h1M3 12h1M6 12h1M3 13h1M6 13h1" />
<path stroke="#0300ff" d="M7 2h3M9 3h1M9 4h1M7 5h1M9 5h1M7 6h3" />
<path stroke="#00ce1c" d="M10 2h3M12 3h1M12 4h1M10 5h1M12 5h1M10 6h3M9 7h1M9 8h1M9 9h1M9 10h1M9 11h1M9 12h1M9 13h1" />
</svg>